Topic;matters_CUNIMTIR_task22_round1_deen_Run1DirichletLM;matters_CUNIMTIR_task22_round1_deen_Run3DIRLMQEBo2F;matters_CUNIMTIR_task22_round1_deen_Run4DIRLMQEKLD;matters_CUNIMTIR_task22_round1_deen_Run5DirichletLMConv;matters_CUNIMTIR_task22_round1_esen_Run1DirichletLM;matters_CUNIMTIR_task22_round1_esen_Run3DIRLMQEBo2F;matters_CUNIMTIR_task22_round1_esen_Run4DIRLMQEKLD;matters_CUNIMTIR_task22_round1_esen_Run5DirichletLMConv;matters_CUNIMTIR_task22_round1_fren_Run1DirichletLM;matters_CUNIMTIR_task22_round1_fren_Run3DIRLMQEBo2F;matters_CUNIMTIR_task22_round1_fren_Run4DIRLMQEKLD;matters_CUNIMTIR_task22_round1_fren_Run5DirichletLMConv;matters_CUNIMTIR_task22_round1_sven_Run1DirichletLM;matters_CUNIMTIR_task22_round1_sven_Run3DIRLMQEBo2F;matters_CUNIMTIR_task22_round1_sven_Run4DIRLMQEKLD;matters_CUNIMTIR_task22_round1_sven_Run5DirichletLMConv
1;0.235849;0.150943;0.150943;0.235849;0.075472;0.009434;0.009434;0.235849;0.235849;0.150943;0.150943;0.084906;0.235849;0.150943;0.150943;0.235849
10;0.120805;0.067114;0.067114;0.107383;0.147651;0.107383;0.067114;0.147651;0.073826;0.006711;0.040268;0.09396;0.073826;0.053691;0.060403;0.073826
11;0;0;0;0;0.016;0.016;0.016;0.056;0.272;0.24;0.12;0.016;0.024;0;0;0.136
1101;0;0;0;0.171171;0.234234;0.009009;0.072072;0.27027;0.234234;0.009009;0.072072;0.378378;0.234234;0.009009;0.072072;0.216216
1104;0.096296;0.022222;0.014815;0.237037;0.148148;0.014815;0.02963;0.237037;0.259259;0.059259;0.051852;0.244444;0.140741;0.037037;0.022222;0.192593
1105;0.038961;0.038961;0.038961;0.038961;0.064935;0.038961;0.012987;0.064935;0.012987;0.012987;0.051948;0.038961;0.025974;0.038961;0.051948;0.025974
1106;0.070707;0;0;0.10101;0.040404;0;0;0.040404;0.040404;0;0;0.141414;0.040404;0;0;0.10101
1110;0.044118;0.058824;0.014706;0.044118;0;0;0;0.029412;0.029412;0;0;0.029412;0.029412;0;0;0.044118
1113;0.016667;0.066667;0;0.083333;0.383333;0.266667;0.2;0.45;0.066667;0;0;0.116667;0;0.016667;0.016667;0.016667
1115;0;0;0;0.00578;0;0;0;0;0.075145;0.017341;0.011561;0.034682;0;0;0;0
1116;0.234568;0;0;0.234568;0.234568;0;0;0.234568;0.234568;0;0;0.234568;0.234568;0;0;0.234568
1120;0.32948;0.144509;0.057803;0.32948;0.410405;0.190751;0.190751;0.410405;0.323699;0.184971;0.289017;0.219653;0.32948;0.144509;0.057803;0.32948
1122;0.529412;0.264706;0.323529;0.235294;0;0;0;0;0.529412;0.264706;0.323529;0.102941;0.529412;0.264706;0.323529;0.088235
1123;0.2;0.147368;0.136842;0.021053;0.326316;0.305263;0.294737;0.568421;0.326316;0.305263;0.294737;0.642105;0.326316;0.305263;0.294737;0.326316
1129;0.309091;0.090909;0.181818;0.163636;0.509091;0.218182;0.163636;0.509091;0.145455;0.072727;0.072727;0.2;0.163636;0.472727;0.109091;0.2
1130;0.152778;0.138889;0.173611;0.111111;0.111111;0.069444;0.076389;0.131944;0.069444;0.034722;0.0625;0.125;0.048611;0.006944;0.034722;0.013889
1135;0.034483;0.017241;0.017241;0.034483;0;0;0;0;0;0;0;0;0;0;0;0.017241
12;0.045455;0;0.009091;0.054545;0.045455;0;0.009091;0.209091;0.045455;0;0.009091;0.1;0.045455;0;0.009091;0.163636
13;0.168224;0.009346;0.018692;0.168224;0.093458;0;0.028037;0.168224;0.168224;0.009346;0.018692;0.168224;0.168224;0.009346;0.018692;0.233645
14;0.028846;0.028846;0.019231;0.096154;0.019231;0;0;0.057692;0.067308;0;0;0.057692;0.038462;0;0.028846;0.038462
18;0.012987;0;0;0.220779;0.175325;0;0.006494;0.175325;0.175325;0;0.006494;0.279221;0.175325;0.012987;0.012987;0.220779
19;0.303448;0.2;0.227586;0.303448;0.303448;0.2;0.227586;0.303448;0.22069;0.137931;0.096552;0.22069;0.027586;0.027586;0.041379;0.365517
21;0.184874;0.016807;0.033613;0.252101;0.184874;0.016807;0.033613;0.294118;0.184874;0.016807;0.033613;0.260504;0.184874;0.016807;0.033613;0.184874
22;0.257143;0.042857;0.057143;0.671429;0.257143;0.014286;0.014286;0.257143;0.185714;0;0;0.442857;0.342857;0.042857;0.071429;0.685714
23;0.210084;0.142857;0.10084;0.058824;0.327731;0.10084;0.084034;0.327731;0.327731;0.10084;0.084034;0.168067;0.210084;0.142857;0.10084;0.184874
24;0.306122;0.153061;0.153061;0.091837;0.306122;0.153061;0.153061;0.285714;0.306122;0.153061;0.153061;0.285714;0.306122;0.153061;0.153061;0.306122
3;0.195122;0.01626;0.081301;0.211382;0.195122;0.01626;0.081301;0.227642;0.195122;0.01626;0.081301;0.341463;0.195122;0.01626;0.081301;0.276423
4;0.166667;0.013889;0;0.180556;0.111111;0;0.013889;0.166667;0.166667;0.013889;0;0.180556;0.166667;0.013889;0;0.194444
6;0.25;0.08125;0.10625;0.2;0.26875;0.11875;0.1625;0.26875;0.2875;0.28125;0.2625;0.225;0.25;0.08125;0.10625;0.23125
7;0.457627;0.372881;0.355932;0.542373;0.457627;0.372881;0.355932;0.457627;0.5;0.305085;0.372881;0.567797;0.457627;0.398305;0.322034;0.559322
