Topic;matters_CUNIMTIR_task21_round1_enen_Run1DirichletLM;matters_CUNIMTIR_task21_round1_enen_Run2PL2F;matters_CUNIMTIR_task21_round1_enen_Run3DIRLMQEBo2F;matters_CUNIMTIR_task21_round1_enen_Run4DIRLMQEKLD;matters_CUNIMTIR_task21_round1_enen_Run5DirichletLMConv
1;0.5;0.113208;0.132075;0.132075;0.5
10;0.536913;0.348993;0.261745;0.302013;0.322148
11;0.456;0.08;0.24;0.24;0.496
1101;0.90991;0.144144;0.504505;0.018018;0.801802
1104;0.407407;0.044444;0.088889;0.074074;0.466667
1105;0.376623;0.220779;0.051948;0.155844;0.376623
1106;0.20202;0.060606;0;0.010101;0.222222
1110;0.191176;0.161765;0;0;0.308824
1113;0.966667;0.383333;0.9;0.9;0.95
1115;0.572254;0.156069;0.33526;0.231214;0.416185
1116;0.407407;0.395062;0.037037;0.024691;0.407407
1120;0.716763;0.734104;0.549133;0.393064;0.630058
1122;0.691176;0.794118;0.323529;0.191176;0.647059
1123;0.989474;0.305263;0.810526;0.621053;0.989474
1129;0.836364;0.618182;0.527273;0.563636;0.909091
1130;0.305556;0.430556;0.354167;0.319444;0.381944
1135;0.103448;0.258621;0.068966;0.103448;0.086207
12;0.2;0.027273;0;0.009091;0.218182
13;0.093458;0.074766;0.018692;0.11215;0.429907
14;0.644231;0.663462;0.673077;0.576923;0.605769
18;0.506494;0.116883;0.025974;0.103896;0.461039
19;0.682759;0.655172;0.441379;0.448276;0.668966
21;0.495798;0.05042;0.344538;0.243697;0.378151
22;0.414286;0.028571;0.171429;0.142857;0.728571
23;0.630252;0.134454;0.512605;0.411765;0.403361
24;0.520408;0.071429;0.183673;0.255102;0.540816
3;0.512195;0.04065;0.211382;0.235772;0.593496
4;0.25;0.069444;0;0;0.347222
6;0.5875;0.6125;0.5375;0.55625;0.4375
7;0.737288;0.254237;0.652542;0.610169;0.754237
