Topic;matters_CUNIMTIR_task21_round1_enen_Run1DirichletLM;matters_CUNIMTIR_task21_round1_enen_Run2PL2F;matters_CUNIMTIR_task21_round1_enen_Run3DIRLMQEBo2F;matters_CUNIMTIR_task21_round1_enen_Run4DIRLMQEKLD;matters_CUNIMTIR_task21_round1_enen_Run5DirichletLMConv
1;0.073835;0.008203;0.020634;0.058895;0.073835
10;0.149501;0.028245;0.037044;0.055813;0.176699
11;0.087904;0.007187;0.00814;0.013447;0.17065
1101;0.389091;0.04132;0.104561;0.009037;0.282227
1104;0.039286;0.004566;0.001434;0.017;0.188955
1105;0.043873;0.061706;0.000773;0.006414;0.043873
1106;0.026575;0.021177;0;6.8e-05;0.057703
1110;0.00861;0.012497;0;0;0.022917
1113;0.490355;0.074132;0.393019;0.251495;0.471359
1115;0.194056;0.017892;0.080085;0.045164;0.155401
1116;0.081771;0.071879;0.002549;0.010288;0.081771
1120;0.309384;0.215779;0.224071;0.06448;0.276693
1122;0.104826;0.105854;0.00961;0.014716;0.1078
1123;0.349008;0.099123;0.270145;0.19809;0.38697
1129;0.157735;0.115028;0.019873;0.027687;0.245276
1130;0.236088;0.219954;0.209098;0.210187;0.236708
1135;0.018928;0.031909;0.023116;0.000612;0.002763
12;0.054941;0.025;0;1e-05;0.104109
13;0.062763;0.006583;4.6e-05;0.017948;0.233361
14;0.372713;0.2169;0.321446;0.201601;0.341112
18;0.175015;0.009317;0.006671;0.008557;0.16188
19;0.216205;0.17333;0.102127;0.112075;0.290563
21;0.120678;0.036141;0.127172;0.096968;0.091844
22;0.068308;0.000289;0.005321;0.001941;0.498571
23;0.27014;0.033057;0.131816;0.088507;0.166098
24;0.185742;0.046093;0.057928;0.052781;0.09475
3;0.175238;0.025158;0.034467;0.025384;0.227815
4;0.021775;0.003915;0;0;0.047337
6;0.172019;0.170516;0.133827;0.136093;0.090981
7;0.321749;0.055572;0.320073;0.247569;0.394799
